Getting the Most Out of Surveys
…
```
[1] 5000   15
```

```r
sample_summary <- ces_sample  |>  
  group_by(abb) |>  
  summarize(estimate = mean(defund_police),
            num_respondents = n())

sample_summary
```

```
# A tibble: 48 x 3
   abb   estimate num_respondents
   <chr>    <dbl>           <int>
 1 AL       0.416             101
 2 AR       0.255              51
 3 AZ       0.364             118
 4 CA       0.490             435
 5 CO       0.562              96
 6 CT       0.468              62
 7 DE       0.448              29
 8 FL       0.406             399
 9 GA       0.393             183
10 IA       0.439              41
# ... with 38 more rows
```
…
